{
    "openapi": "3.0.0",
    "info": {
        "title": "KEDAS - Accounting Software",
        "description": "Kedas is an accounting and billing system, designed to manage your business,\r\n\tmake it grow and make the most of your time.  You can find out more about Kedas at [http://kedasrd.com/](http://kedasrd.com/) \r\n\t<br><h3> Set header for X-localization = en or es for multiple language support </h3>",
        "termsOfService": "http://kedasrd.com/terms-conditions",
        "contact": {
            "email": "info@kedas.com"
        },
        "version": "v1"
    },
    "servers": [
        {
            "url": "http://localhost/kedas",
            "description": "teqdeft"
        }
    ],
    "paths": {
        "/api/v1/register": {
            "post": {
                "tags": [
                    "Authenticate"
                ],
                "summary": "Register a new user to the kedas",
                "operationId": "register",
                "parameters": [
                    {
                        "name": "X-localization",
                        "in": "header"
                    },
                    {
                        "name": "name",
                        "in": "query",
                        "required": true
                    },
                    {
                        "name": "email",
                        "in": "query",
                        "required": true
                    },
                    {
                        "name": "phone",
                        "in": "query",
                        "required": true
                    },
                    {
                        "name": "password",
                        "in": "query",
                        "required": true
                    }
                ],
                "responses": {
                    "200": {
                        "description": "ok",
                        "content": {
                            "application/json": {
                                "schema": {
                                    "properties": {
                                        "name": {
                                            "description": "The response code",
                                            "type": "string",
                                            "example": "john smith"
                                        },
                                        "email": {
                                            "description": "The response message",
                                            "type": "string",
                                            "example": "teqdeft@yopmail.com"
                                        },
                                        "phone": {
                                            "description": "The response data",
                                            "type": "integer",
                                            "example": "1234567890"
                                        },
                                        "password": {
                                            "description": "The response data",
                                            "type": "string",
                                            "example": "123456"
                                        },
                                        "localization": {
                                            "description": "set the language",
                                            "type": "string",
                                            "example": "en or es"
                                        }
                                    },
                                    "type": "object"
                                }
                            }
                        }
                    }
                }
            }
        },
        "/api/v1/logout": {
            "post": {
                "tags": [
                    "Authenticate"
                ],
                "summary": "Logout a logged user from kedas",
                "operationId": "logout",
                "responses": {
                    "200": {
                        "description": "ok",
                        "content": {
                            "application/json": {}
                        }
                    }
                },
                "security": [
                    {
                        "passport": []
                    }
                ]
            }
        },
        "/api/v1/forgot-password": {
            "post": {
                "tags": [
                    "Authenticate"
                ],
                "summary": "Forgot password",
                "operationId": "forgotPassword",
                "parameters": [
                    {
                        "name": "X-localization",
                        "in": "header"
                    },
                    {
                        "name": "email",
                        "in": "query",
                        "required": true
                    }
                ],
                "responses": {
                    "200": {
                        "description": "ok",
                        "content": {
                            "application/json": {
                                "schema": {
                                    "properties": {
                                        "email": {
                                            "description": "The response message",
                                            "type": "string",
                                            "example": "teqdeft@yopmail.com"
                                        }
                                    },
                                    "type": "object"
                                }
                            }
                        }
                    }
                }
            }
        },
        "/api/v1/change-password": {
            "post": {
                "tags": [
                    "Authenticate"
                ],
                "summary": "Change password",
                "operationId": "changePassword",
                "parameters": [
                    {
                        "name": "X-localization",
                        "in": "header"
                    },
                    {
                        "name": "name",
                        "in": "query",
                        "required": true
                    },
                    {
                        "name": "current_password",
                        "in": "query",
                        "required": true
                    },
                    {
                        "name": "password",
                        "in": "query",
                        "required": true
                    },
                    {
                        "name": "password_confirmation",
                        "in": "query",
                        "required": true
                    }
                ],
                "responses": {
                    "200": {
                        "description": "ok",
                        "content": {
                            "application/json": {
                                "schema": {
                                    "properties": {
                                        "name": {
                                            "description": "The response message",
                                            "type": "string",
                                            "example": "test john"
                                        },
                                        "current_password": {
                                            "description": "The response message",
                                            "type": "string",
                                            "example": "123456"
                                        },
                                        "password": {
                                            "description": "The response message",
                                            "type": "string",
                                            "example": "654321"
                                        },
                                        "password_confirmation": {
                                            "description": "The response message",
                                            "type": "string",
                                            "example": "654321"
                                        }
                                    },
                                    "type": "object"
                                }
                            }
                        }
                    }
                },
                "security": [
                    {
                        "passport": []
                    }
                ]
            }
        },
        "/api/v1/verify-account": {
            "post": {
                "tags": [
                    "Authenticate"
                ],
                "summary": "Verify account before access",
                "operationId": "verifyAccount",
                "parameters": [
                    {
                        "name": "X-localization",
                        "in": "header"
                    },
                    {
                        "name": "email_token",
                        "in": "query",
                        "required": true
                    },
                    {
                        "name": "email",
                        "in": "query",
                        "required": true
                    }
                ],
                "responses": {
                    "200": {
                        "description": "ok",
                        "content": {
                            "application/json": {
                                "schema": {
                                    "properties": {
                                        "email_token": {
                                            "description": "email token",
                                            "type": "string",
                                            "example": "1111"
                                        },
                                        "email": {
                                            "description": "enter email",
                                            "type": "string",
                                            "example": "teqdeft@yopmail.com"
                                        }
                                    },
                                    "type": "object"
                                }
                            }
                        }
                    }
                },
                "security": [
                    {
                        "passport": []
                    }
                ]
            }
        },
        "/api/v1/reset-password": {
            "post": {
                "tags": [
                    "Authenticate"
                ],
                "summary": "Reset user password after forgot password step",
                "operationId": "resetPassword",
                "parameters": [
                    {
                        "name": "X-localization",
                        "in": "header"
                    },
                    {
                        "name": "email",
                        "in": "query",
                        "required": true
                    },
                    {
                        "name": "email_token",
                        "in": "query",
                        "required": true
                    },
                    {
                        "name": "password",
                        "in": "query",
                        "required": true
                    }
                ],
                "responses": {
                    "200": {
                        "description": "ok",
                        "content": {
                            "application/json": {
                                "schema": {
                                    "properties": {
                                        "email_token": {
                                            "description": "email token",
                                            "type": "string",
                                            "example": "1111"
                                        },
                                        "email": {
                                            "description": "enter email",
                                            "type": "string",
                                            "example": "teqdeft@yopmail.com"
                                        }
                                    },
                                    "type": "object"
                                }
                            }
                        }
                    }
                },
                "security": [
                    {
                        "passport": []
                    }
                ]
            }
        },
        "/api/v1/resend-code": {
            "post": {
                "tags": [
                    "Authenticate"
                ],
                "summary": "Resend code before access",
                "operationId": "resendCode",
                "parameters": [
                    {
                        "name": "X-localization",
                        "in": "header"
                    }
                ],
                "responses": {
                    "200": {
                        "description": ""
                    }
                },
                "security": [
                    {
                        "default": []
                    }
                ]
            }
        },
        "/api/v1/clients/credit-notes": {
            "get": {
                "tags": [
                    "Credit Notes"
                ],
                "summary": "listing of all credit notes",
                "operationId": "creditnotes",
                "parameters": [
                    {
                        "name": "X-localization",
                        "in": "header"
                    }
                ],
                "responses": {
                    "200": {
                        "description": "ok",
                        "content": {
                            "application/json": {}
                        }
                    }
                },
                "security": [
                    {
                        "passport": []
                    }
                ]
            }
        },
        "/api/v1/clients/debit-notes": {
            "get": {
                "tags": [
                    "Debit Notes"
                ],
                "summary": "listing of all debit notes",
                "operationId": "debitnotes",
                "parameters": [
                    {
                        "name": "X-localization",
                        "in": "header"
                    }
                ],
                "responses": {
                    "200": {
                        "description": "ok",
                        "content": {
                            "application/json": {}
                        }
                    }
                },
                "security": [
                    {
                        "passport": []
                    }
                ]
            }
        },
        "/api/v1/clients/estimates": {
            "get": {
                "tags": [
                    "Estimates"
                ],
                "summary": "listing of all estimates",
                "operationId": "estimates",
                "parameters": [
                    {
                        "name": "X-localization",
                        "in": "header"
                    }
                ],
                "responses": {
                    "200": {
                        "description": "ok",
                        "content": {
                            "application/json": {}
                        }
                    }
                },
                "security": [
                    {
                        "passport": []
                    }
                ]
            }
        },
        "/api/v1/clients/invoices/{type}": {
            "get": {
                "tags": [
                    "Invoices"
                ],
                "summary": "listing of all invoices type = sale|recurring, default is sale",
                "operationId": "invoices",
                "parameters": [
                    {
                        "name": "X-localization",
                        "in": "header"
                    },
                    {
                        "name": "type",
                        "in": "path"
                    }
                ],
                "responses": {
                    "200": {
                        "description": "ok",
                        "content": {
                            "application/json": {}
                        }
                    }
                },
                "security": [
                    {
                        "passport": []
                    }
                ]
            }
        },
        "/api/v1/clients/invoices/{invoice_id}": {
            "get": {
                "tags": [
                    "Invoices"
                ],
                "summary": "Get single invoice detail",
                "operationId": "singleInvoices",
                "parameters": [
                    {
                        "name": "X-localization",
                        "in": "header"
                    },
                    {
                        "name": "invoice_id",
                        "in": "path"
                    }
                ],
                "responses": {
                    "200": {
                        "description": "ok",
                        "content": {
                            "application/json": {}
                        }
                    }
                },
                "security": [
                    {
                        "passport": []
                    }
                ]
            }
        },
        "/api/v1/clients/payments": {
            "get": {
                "tags": [
                    "Payments"
                ],
                "summary": "listing of all payments",
                "operationId": "payments",
                "parameters": [
                    {
                        "name": "X-localization",
                        "in": "header"
                    }
                ],
                "responses": {
                    "200": {
                        "description": "ok"
                    }
                },
                "security": [
                    {
                        "passport": []
                    }
                ]
            }
        },
        "/api/v1/clients/payments/{payment_id}": {
            "get": {
                "tags": [
                    "Payments"
                ],
                "summary": "Get single payment detail",
                "operationId": "singlePayments",
                "parameters": [
                    {
                        "name": "X-localization",
                        "in": "header"
                    },
                    {
                        "name": "payment_id",
                        "in": "path"
                    }
                ],
                "responses": {
                    "200": {
                        "description": "ok",
                        "content": {
                            "application/json": {}
                        }
                    }
                },
                "security": [
                    {
                        "passport": []
                    }
                ]
            }
        },
        "/api/v1/ratings": {
            "post": {
                "tags": [
                    "Rating"
                ],
                "summary": "Save rating from kedas",
                "operationId": "saveRating",
                "parameters": [
                    {
                        "name": "X-localization",
                        "in": "header"
                    },
                    {
                        "name": "rating",
                        "in": "query",
                        "required": true
                    },
                    {
                        "name": "review",
                        "in": "query"
                    },
                    {
                        "name": "rating_id",
                        "in": "query"
                    }
                ],
                "responses": {
                    "200": {
                        "description": "ok",
                        "content": {
                            "application/json": {}
                        }
                    }
                },
                "security": [
                    {
                        "passport": []
                    }
                ]
            }
        },
        "/api/v1/stores": {
            "get": {
                "tags": [
                    "Store"
                ],
                "summary": "listing of all stores",
                "operationId": "store",
                "parameters": [
                    {
                        "name": "X-localization",
                        "in": "header"
                    },
                    {
                        "name": "city",
                        "in": "query"
                    },
                    {
                        "name": "state",
                        "in": "query"
                    },
                    {
                        "name": "country",
                        "in": "query"
                    }
                ],
                "responses": {
                    "200": {
                        "description": "ok",
                        "content": {
                            "application/json": {
                                "schema": {
                                    "properties": {
                                        "city": {
                                            "description": "City value to search with",
                                            "type": "string",
                                            "example": "abc"
                                        },
                                        "state": {
                                            "description": "State value to search with",
                                            "type": "string",
                                            "example": "hry"
                                        },
                                        "country": {
                                            "description": "Country id to search with",
                                            "type": "integer",
                                            "example": "227"
                                        }
                                    },
                                    "type": "object"
                                }
                            }
                        }
                    }
                },
                "security": [
                    {
                        "passport": []
                    }
                ]
            }
        },
        "/api/v1/stores/favourites": {
            "get": {
                "tags": [
                    "Store"
                ],
                "summary": "Get client favourite stores",
                "operationId": "clientStores",
                "parameters": [
                    {
                        "name": "X-localization",
                        "in": "header"
                    }
                ],
                "responses": {
                    "200": {
                        "description": "ok",
                        "content": {
                            "application/json": {}
                        }
                    }
                },
                "security": [
                    {
                        "passport": []
                    }
                ]
            },
            "post": {
                "tags": [
                    "Store"
                ],
                "summary": "Save client favourite stores from kedas",
                "operationId": "saveFavouriteStores",
                "parameters": [
                    {
                        "name": "X-localization",
                        "in": "header"
                    },
                    {
                        "name": "store_ids",
                        "in": "query"
                    }
                ],
                "responses": {
                    "200": {
                        "description": "ok",
                        "content": {
                            "application/json": {}
                        }
                    }
                },
                "security": [
                    {
                        "passport": []
                    }
                ]
            }
        },
        "/api/v1/stores/{store_id}": {
            "get": {
                "tags": [
                    "Store"
                ],
                "summary": "Get single store detail",
                "operationId": "singleStoreDetails",
                "parameters": [
                    {
                        "name": "X-localization",
                        "in": "header"
                    },
                    {
                        "name": "store_id",
                        "in": "path"
                    }
                ],
                "responses": {
                    "200": {
                        "description": "ok",
                        "content": {
                            "application/json": {}
                        }
                    }
                },
                "security": [
                    {
                        "passport": []
                    }
                ]
            }
        },
        "/api/v1/stores/favourites/{store_id}": {
            "delete": {
                "tags": [
                    "Store"
                ],
                "summary": "Delete client favourite stores from kedas",
                "operationId": "deleteFavouriteStores",
                "parameters": [
                    {
                        "name": "X-localization",
                        "in": "header"
                    },
                    {
                        "name": "store_id",
                        "in": "path"
                    }
                ],
                "responses": {
                    "200": {
                        "description": "ok",
                        "content": {
                            "application/json": {}
                        }
                    }
                },
                "security": [
                    {
                        "passport": []
                    }
                ]
            }
        },
        "/api/v1/stores/{store_id}/make-primary": {
            "put": {
                "tags": [
                    "Store"
                ],
                "summary": "Save client primary stores",
                "operationId": "saveClientStores",
                "parameters": [
                    {
                        "name": "X-localization",
                        "in": "header"
                    },
                    {
                        "name": "store_id",
                        "in": "path"
                    }
                ],
                "responses": {
                    "200": {
                        "description": "ok",
                        "content": {
                            "application/json": {}
                        }
                    }
                },
                "security": [
                    {
                        "passport": []
                    }
                ]
            }
        },
        "/api/v1/profile": {
            "get": {
                "tags": [
                    "Users"
                ],
                "summary": "User profile from kedas",
                "operationId": "profile",
                "responses": {
                    "200": {
                        "description": "ok",
                        "content": {
                            "application/json": {}
                        }
                    }
                },
                "security": [
                    {
                        "passport": []
                    }
                ]
            },
            "put": {
                "tags": [
                    "Users"
                ],
                "summary": "Update user to the kedas",
                "operationId": "updateProfile",
                "parameters": [
                    {
                        "name": "X-localization",
                        "in": "header"
                    },
                    {
                        "name": "name",
                        "in": "query",
                        "required": true
                    },
                    {
                        "name": "address",
                        "in": "query",
                        "required": true
                    },
                    {
                        "name": "zip",
                        "in": "query",
                        "required": true
                    },
                    {
                        "name": "city",
                        "in": "query",
                        "required": true
                    },
                    {
                        "name": "state",
                        "in": "query",
                        "required": true
                    },
                    {
                        "name": "country",
                        "in": "query",
                        "required": true
                    }
                ],
                "responses": {
                    "200": {
                        "description": "ok",
                        "content": {
                            "application/json": {
                                "schema": {
                                    "properties": {
                                        "name": {
                                            "description": "The response code",
                                            "type": "string",
                                            "example": "john smith"
                                        },
                                        "address": {
                                            "description": "The response message",
                                            "type": "string",
                                            "example": "#12 ab street"
                                        },
                                        "city": {
                                            "description": "The response data",
                                            "type": "integer",
                                            "example": "london"
                                        },
                                        "state": {
                                            "description": "The response data",
                                            "type": "string",
                                            "example": "Scotland"
                                        },
                                        "country": {
                                            "description": "227 = US",
                                            "type": "string",
                                            "example": "227"
                                        }
                                    },
                                    "type": "object"
                                }
                            }
                        }
                    }
                },
                "security": [
                    {
                        "passport": []
                    }
                ]
            }
        },
        "/api/v1/static-content": {
            "get": {
                "tags": [
                    "Static Content"
                ],
                "summary": "Static content",
                "operationId": "staticContent",
                "parameters": [
                    {
                        "name": "X-localization",
                        "in": "header"
                    }
                ],
                "responses": {
                    "200": {
                        "description": "ok",
                        "content": {
                            "application/json": {}
                        }
                    }
                },
                "security": [
                    {
                        "passport": []
                    }
                ]
            }
        }
    },
    "components": {
        "securitySchemes": {
            "passport": {
                "type": "oauth2",
                "description": "Laravel passport oauth2 security.",
                "in": "header",
                "scheme": "https",
                "flows": {
                    "password": {
                        "authorizationUrl": "http://localhost/kedas/oauth/authorize",
                        "tokenUrl": "http://localhost/kedas/oauth/token",
                        "refreshUrl": "http://localhost/kedas/token/refresh",
                        "scopes": []
                    }
                }
            }
        }
    },
    "security": [
        []
    ]
}